…
    ## # A tibble: 6 × 2
    ##   `Beer Name`    `Beer Type`            
    ##   <chr>          <chr>                  
    ## 1 Single Stack   American Stout         
    ## 2 Persist        American Imperial Stout
    ## 3 Rubus Cacao    American Stout         
    ## 4 The Awakening  American Stout         
    ## 5 Paddy Wagon    Irish Dry Stout        
    ## 6 Tom Swamp Road American Stout

Now that I have all of the beer available, I joined them all together to
begin creating variety packs.

    ## # A tibble: 100 × 5
    ##     Rank `Beer Name`                         Ratings   Avg `Beer Type`
    ##    <int> <chr>                               <chr>   <dbl> <chr>      
    ##  1     1 Funeral Bock                        37       4.19 Bock       
    ##  2     2 Christmas Bock                      16       4.28 Bock       
    ##  3     3 Bourbon Love Honey Barrel-Aged Bock 26       4.17 Bock       
    ##  4     4 Mystic Bock                         12       4.24 Bock       
    ##  5     5 Genuine Bock Beer                   31       4.07 Bock       
    ##  6     6 La Trappe Bockbier                  305      3.98 Bock       
    ##  7     7 Holiday Bock                        26       4.06 Bock       
    ##  8     8 Aass Bock                           67       3.99 Bock       
    ##  9     9 Ayinger Winterbock                  50       4    Bock       
    ## 10    10 Baphomet Bock                       34       4.02 Bock       
    ## # … with 90 more rows
…
